try_to_replicate_pt2
…
Balance Table

balance <- scm_data %>%
  grab_balance_table()

balance

# A tibble: 21 × 4
   variable            `United Kingdom` `synthetic_United Kingdom` donor_sample
   <chr>                          <dbl>                      <dbl>        <dbl>
 1 EN.ATM.CO2E.PC_1980            10.3                       10.4         10.7 
 2 EN.ATM.CO2E.PC_1981             9.96                       9.92         9.16
 3 EN.ATM.CO2E.PC_1982             9.74                       9.74         8.83
 4 EN.ATM.CO2E.PC_1983             9.69                       9.60         8.41
 5 EN.ATM.CO2E.PC_1984             9.38                       9.56         8.66
 6 EN.ATM.CO2E.PC_1985             9.90                       9.87         8.78
 7 EN.ATM.CO2E.PC_1986            10.0                       10.1          8.75
 8 EN.ATM.CO2E.PC_1987            10.1                        9.96         8.64
 9 EN.ATM.CO2E.PC_1988            10.0                       10.1          8.90
10 EN.ATM.CO2E.PC_1989            10.2                       10.1          9.26
# ℹ 11 more rows
